-------------------------------------------------------------------------------
Test set: com.fotorest.foto.FotoApplicationTests
-------------------------------------------------------------------------------
Tests run: 1, Failures: 0, Errors: 0, Skipped: 0, Time elapsed: 14.467 s - in com.fotorest.foto.FotoApplicationTests
