c:\Users\ayrto\OneDrive\Documentos\estudos_projects\exercicios-mastertech\exercicio-casa\foto\src\main\java\com\fotorest\foto\FotoController.java
c:\Users\ayrto\OneDrive\Documentos\estudos_projects\exercicios-mastertech\exercicio-casa\foto\src\main\java\com\fotorest\foto\FotoRepository.java
c:\Users\ayrto\OneDrive\Documentos\estudos_projects\exercicios-mastertech\exercicio-casa\foto\src\main\java\com\fotorest\foto\ResourceServerConfig.java
c:\Users\ayrto\OneDrive\Documentos\estudos_projects\exercicios-mastertech\exercicio-casa\foto\src\main\java\com\fotorest\foto\FotoService.java
c:\Users\ayrto\OneDrive\Documentos\estudos_projects\exercicios-mastertech\exercicio-casa\foto\src\main\java\com\fotorest\foto\Foto.java
c:\Users\ayrto\OneDrive\Documentos\estudos_projects\exercicios-mastertech\exercicio-casa\foto\src\main\java\com\fotorest\foto\FotoApplication.java
