-------------------------------------------------------------------------------
Test set: br.com.itau.investimentocliente.controllers.ClientControllerTest
-------------------------------------------------------------------------------
Tests run: 2, Failures: 0, Errors: 0, Skipped: 0, Time elapsed: 8.018 s - in br.com.itau.investimentocliente.controllers.ClientControllerTest
